<?xml version="1.0" encoding="UTF-8"?>
<testsuite name="tests.REST_API" tests="6" skipped="0" failures="0" errors="0" timestamp="2025-03-21T11:34:09" hostname="DESKTOP-UT24LFN" time="6.451">
  <properties/>
  <testcase name="delayedResponseTest()" classname="tests.REST_API" time="5.22"/>
  <testcase name="successfulRegisterTest()" classname="tests.REST_API" time="0.33"/>
  <testcase name="unsuccessfulRegisterTest()" classname="tests.REST_API" time="0.316"/>
  <testcase name="listUserTest()" classname="tests.REST_API" time="0.155"/>
  <testcase name="successfulCreateTest()" classname="tests.REST_API" time="0.317"/>
  <testcase name="kriErnFindTest()" classname="tests.REST_API" time="0.112"/>
  <system-out><![CDATA[HTTP/1.1 200 OK
{
    "page": 1,
    "per_page": 6,
    "total": 12,
    "total_pages": 2,
    "data": [
        {
            "id": 1,
            "email": "george.bluth@reqres.in",
            "first_name": "George",
            "last_name": "Bluth",
            "avatar": "https://reqres.in/img/faces/1-image.jpg"
        },
        {
            "id": 2,
            "email": "janet.weaver@reqres.in",
            "first_name": "Janet",
            "last_name": "Weaver",
            "avatar": "https://reqres.in/img/faces/2-image.jpg"
        },
        {
            "id": 3,
            "email": "emma.wong@reqres.in",
            "first_name": "Emma",
            "last_name": "Wong",
            "avatar": "https://reqres.in/img/faces/3-image.jpg"
        },
        {
            "id": 4,
            "email": "eve.holt@reqres.in",
            "first_name": "Eve",
            "last_name": "Holt",
            "avatar": "https://reqres.in/img/faces/4-image.jpg"
        },
        {
            "id": 5,
            "email": "charles.morris@reqres.in",
            "first_name": "Charles",
            "last_name": "Morris",
            "avatar": "https://reqres.in/img/faces/5-image.jpg"
        },
        {
            "id": 6,
            "email": "tracey.ramos@reqres.in",
            "first_name": "Tracey",
            "last_name": "Ramos",
            "avatar": "https://reqres.in/img/faces/6-image.jpg"
        }
    ],
    "support": {
        "url": "https://contentcaddy.io?utm_source=reqres&utm_medium=json&utm_campaign=referral",
        "text": "Tired of writing endless social media content? Let Content Caddy generate it for you."
    }
}
Request URI:	https://reqres.in/api/register
HTTP/1.1 200 OK
{
    "id": 4,
    "token": "QpwL5tke4Pnpja7X4"
}
Request URI:	https://reqres.in/api/register
HTTP/1.1 400 Bad Request
{
    "error": "Missing password"
}
HTTP/1.1 200 OK
{
    "page": 2,
    "per_page": 6,
    "total": 12,
    "total_pages": 2,
    "data": [
        {
            "id": 7,
            "email": "michael.lawson@reqres.in",
            "first_name": "Michael",
            "last_name": "Lawson",
            "avatar": "https://reqres.in/img/faces/7-image.jpg"
        },
        {
            "id": 8,
            "email": "lindsay.ferguson@reqres.in",
            "first_name": "Lindsay",
            "last_name": "Ferguson",
            "avatar": "https://reqres.in/img/faces/8-image.jpg"
        },
        {
            "id": 9,
            "email": "tobias.funke@reqres.in",
            "first_name": "Tobias",
            "last_name": "Funke",
            "avatar": "https://reqres.in/img/faces/9-image.jpg"
        },
        {
            "id": 10,
            "email": "byron.fields@reqres.in",
            "first_name": "Byron",
            "last_name": "Fields",
            "avatar": "https://reqres.in/img/faces/10-image.jpg"
        },
        {
            "id": 11,
            "email": "george.edwards@reqres.in",
            "first_name": "George",
            "last_name": "Edwards",
            "avatar": "https://reqres.in/img/faces/11-image.jpg"
        },
        {
            "id": 12,
            "email": "rachel.howell@reqres.in",
            "first_name": "Rachel",
            "last_name": "Howell",
            "avatar": "https://reqres.in/img/faces/12-image.jpg"
        }
    ],
    "support": {
        "url": "https://contentcaddy.io?utm_source=reqres&utm_medium=json&utm_campaign=referral",
        "text": "Tired of writing endless social media content? Let Content Caddy generate it for you."
    }
}
Request URI:	https://reqres.in/api/users
HTTP/1.1 201 Created
{
    "name": "morpheus",
    "job": "leader",
    "id": "94",
    "createdAt": "2025-03-21T11:34:16.873Z"
}
Request URI:	http://10.15.203.13/api/mdm-ern-service/find
HTTP/1.1 200 OK
{
    "middle_name": "ЗИНОВЬЕВИЧ",
    "last_name": "БЕЛОБОЦКИЙ",
    "first_name": "ДЖЕНЕРИК",
    "documents": {
        "doc_passport_rf": [
            {
                "value": "365085",
                "birth_place": "город Москва",
                "series": "9563",
                "issuer_code": "943837",
                "issuer": "Паспорт РФ",
                "issue_date": "2020-01-29 00:00:00.000"
            }
        ],
        "doc_snils": [
            {
                "value": "59299743074"
            }
        ],
        "doc_inn": [
            {
                "value": "108402060504"
            }
        ]
    }
}
]]></system-out>
  <system-err><![CDATA[]]></system-err>
</testsuite>
